{
  "message": "ok",
  "total_records": 82,
  "total_pages": 9,
  "previous": null,
  "next": "https://www.swapi.tech/api/people?page=2&limit=10",
  "results": [
    {
      "uid": "1",
      "name": "Luke Skywalker",
      "url": "https://www.swapi.tech/api/people/1",
      "image": "Luke Skywalker"
    },
    {
      "uid": "2",
      "name": "C-3PO",
      "url": "https://www.swapi.tech/api/people/2",
      "image": "C-3PO"
    },
    {
      "uid": "3",
      "name": "R2-D2",
      "url": "https://www.swapi.tech/api/people/3",
      "image": "R2-D2"
    },
    {
      "uid": "4",
      "name": "Darth Vader",
      "url": "https://www.swapi.tech/api/people/4",
      "image": "Darth Vader"
    },
    {
      "uid": "5",
      "name": "Leia Organa",
      "url": "https://www.swapi.tech/api/people/5",
      "image": "Leia Organa"
    },
    {
      "uid": "6",
      "name": "Owen Lars",
      "url": "https://www.swapi.tech/api/people/6",
      "image": "Owen Lars"
    },
    {
      "uid": "7",
      "name": "Beru Whitesun lars",
      "url": "https://www.swapi.tech/api/people/7",
      "image": "Beru Whitesun lars"
    },
    {
      "uid": "8",
      "name": "R5-D4",
      "url": "https://www.swapi.tech/api/people/8",
      "image": "R5-D4"
    },
    {
      "uid": "9",
      "name": "Biggs Darklighter",
      "url": "https://www.swapi.tech/api/people/9",
      "image": "Biggs Darklighter"
    },
    {
      "uid": "10",
      "name": "Obi-Wan Kenobi",
      "url": "https://www.swapi.tech/api/people/10",
      "image": "Obi-Wan Kenobi"
    }
  ],
  "apiVersion": "1.0",
  "timestamp": "2025-06-16T08:02:15.475Z",
  "support": {
    "contact": "admin@swapi.tech",
    "donate": "https://www.paypal.com/donate/?business=2HGAUVTWGR5T2&no_recurring=0&item_name=Support+Swapi+and+keep+the+galaxy%27s+data+free%21+Your+donation+fuels+open-source+innovation+and+helps+us+grow.+Thank+you%21+%F0%9F%9A%80&currency_code=USD",
    "partnerDiscounts": {
      "saberMasters": {
        "link": "https://www.swapi.tech/partner-discount/sabermasters-swapi",
        "details": "Use this link to automatically get $10 off your purchase!"
      },
      "heartMath": {
        "link": "https://www.heartmath.com/ryanc",
        "details": "Looking for some Jedi-like inner peace? Take 10% off your heart-brain coherence tools from the HeartMath Institute!"
      }
    }
  },
  "social": {
    "discord": "https://discord.gg/zWvA6GPeNG",
    "reddit": "https://www.reddit.com/r/SwapiOfficial/",
    "github": "https://github.com/semperry/swapi/blob/main/CONTRIBUTORS.md"
  }
}
